Name,BirthYear,BodyweightKg,Sex,WeightClassKg,Best3SquatKg,Best3BenchKg,Best3DeadliftKg,TotalKg,Event,Equipment,Division,BirthDate,Place
Jessica Gißler,2003,55.1,F,56,65,35,95,195,SBD,Wraps,Teenage,,1
Doreen Durschak,1984,60.8,F,67.5,80,50,110,240,SBD,Wraps,Open,,1
Vanessa Meuser,1989,77.4,F,82.5,130,90,165,385,SBD,Wraps,Open,,1
Bade Jana Loureiro,1994,77.5,F,82.5,137.5,67.5,142.5,347.5,SBD,Wraps,Open,,2
Katrin Ribb,1970,79,F,82.5,110,115,162.5,387.5,SBD,Wraps,M 50-54,,1
Oliwier Paszkowski,2004,64.8,M,67.5,150,92.5,180,422.5,SBD,Wraps,Teenage,,1
Felix Jentzsch,1998,85.2,M,90,265,150,245,660,SBD,Wraps,Juniors,,1
Nikita Galenko,1999,115.7,M,125,250,170,275,695,SBD,Wraps,Juniors,,1
Oliver Potas,1995,70.9,M,75,130,130,175,435,SBD,Wraps,Open,,1
Chris Potas,1991,74,M,75,110,102.5,190,402.5,SBD,Wraps,Open,,2
Dennis Boll,1983,81.3,M,82.5,210,132.5,240,582.5,SBD,Wraps,Open,,1
Bakary Keita,1989,82.3,M,82.5,150,140,200,490,SBD,Wraps,Open,,2
Daniel Eckert,1989,89,M,90,200,170,215,585,SBD,Wraps,Open,,1
Lukas Hähnel,1994,97.8,M,100,270,185,300,755,SBD,Wraps,Open,,1
Stefan Schultheiß,1995,95.8,M,100,260,185,270,715,SBD,Wraps,Open,,2
Dominic Walter,1990,94.6,M,100,242.5,140,250,632.5,SBD,Wraps,Open,,3
Kevin Hetzel,1993,97.6,M,100,210,140,230,580,SBD,Wraps,Open,,4
Sebastian Schultheiß,1991,93.3,M,100,190,150,230,570,SBD,Wraps,Open,,5
Balsaitis Zygimantas,1993,102.2,M,110,270,197.5,320,787.5,SBD,Wraps,Open,,1
Moritz Schlüter,1997,108.2,M,110,225,130,270,625,SBD,Wraps,Open,,2
Kevin Lange,1988,103.8,M,110,200,162.5,210,572.5,SBD,Wraps,Open,,3
Falco Rumpel,1988,108.7,M,110,150,112.5,180,442.5,SBD,Wraps,Open,,4
Jeffrey Podszuweit,1977,86.4,M,90,226,170,240.5,636.5,SBD,Wraps,M 40-44,,1
Gregor Görtz,1978,89.6,M,90,105,92.5,130,327.5,SBD,Wraps,M 40-44,,2
Tino Kindling,1978,106.3,M,110,212.5,155,275,642.5,SBD,Wraps,M 40-44,,1
Kai Gißler,1970,89.8,M,90,175,115,210,500,SBD,Wraps,M 50-54,,1
Frank Hamann,1967,108.7,M,110,215,145,265,625,SBD,Wraps,M 50-54,,1
Hagen Ribb,1970,111,M,125,170,160,180,510,SBD,Wraps,M 50-54,,1
Peter Kotschenreuther,1963,95.2,M,100,155,125,220,500,SBD,Wraps,M 55-59,,1
Martin Kries,1985,99.3,M,100,,250,,250,B,Multi-ply,Open,,1
Jan Satrapa,1986,95.4,M,100,,235,,235,B,Multi-ply,Open,,2
Richard Gensch,1985,99.9,M,100,,180,,180,B,Multi-ply,Open,,4
Ronny Dießner,1981,88.4,M,90,,185,,185,B,Multi-ply,Open,,1
Sven Lorenz,1979,106.3,M,110,,185,,185,B,Multi-ply,Open,,1
Steffen Reisbach,1967,89,M,90,,170,,170,B,Multi-ply,Open,,2
Helmut Kraus,1971,97.9,M,100,,200,,200,B,Multi-ply,Open,,3
Uwe Herfort,1960,72.6,M,75,,140,,140,B,Multi-ply,Open,,1
Karl Heinz Lorenz,1960,71.6,M,75,,90,,90,B,Multi-ply,Open,,2
Thomas Wagner,1956,86,M,90,,127.5,,127.5,B,Multi-ply,Open,,3
Helmut Reiman,1951,101.9,M,110,,170,,170,B,Multi-ply,Open,,2
Sabine Allner,1984,115.2,F,90+,,165,,165,B,Unlimited,Open,,1
Martin Kries,1985,99.3,M,115,,270,,270,B,Unlimited,Open,,2
Sven Lorenz,1979,106.3,M,115,,220,,220,B,Unlimited,Open,,3
Richard Gensch,1985,99.9,M,115,,160,,160,B,Unlimited,Open,,6
Erik Knöfler,1981,100.7,M,115,,282.5,,282.5,B,Unlimited,Open,,1
Helmut Kraus,1971,97.9,M,115,,190,,190,B,Unlimited,Open,,4
Kurt Schoula,1952,101.9,M,115,,180,,180,B,Unlimited,Open,,5
Jennifer Maluck,2000,87.5,F,90,,70,,70,B,Raw,Open,,1
Maria Gantke,1982,62.8,F,67.5,,70,,70,B,Raw,Open,,1
Sabine Allner,1984,116.8,F,90+,,140,,140,B,Raw,Open,,1
Ivonne Ludwig,1977,58.6,F,60,,62.5,,62.5,B,Raw,Open,,1
Claudia Busse,1978,91.3,F,90+,,57.5,,57.5,B,Raw,Open,,2
Katrin Ribb,1970,78.1,F,82.5,,115.5,,115.5,B,Raw,Open,,1
Inge Kaule,1952,47.3,F,48,,52.5,,52.5,B,Raw,Open,,1
Alexandro Hanne,2004,59.45,M,60,,,,,B,Raw,Open,,DQ
Hennes Maske,2003,99.2,M,100,,125,,125,B,Raw,Open,,6
Leon Jaggi,2003,111.2,M,125,,115,,115,B,Raw,Open,,6
Matthias Schuster,1999,87,M,90,,152.5,,152.5,B,Raw,Open,,3
Michael Ullrich,1987,74.15,M,75,,130,,130,B,Raw,Open,,2
Gerrit Scheel,1991,88,M,90,,202.5,,202.5,B,Raw,Open,,1
Thomas Lenke,1991,93.8,M,100,,165,,165,B,Raw,Open,,1
Denny Lindner,1985,94,M,100,,130,,130,B,Raw,Open,,5
René Seitz,1991,102.2,M,110,,207.5,,207.5,B,Raw,Open,,1
Jan Sylvester,1985,123.6,M,125,,182.5,,182.5,B,Raw,Open,,1
René Fiedler,1982,131.5,M,140,,185,,185,B,Raw,Open,,2
Uwe Benik,1979,79.7,M,82.5,,145,,145,B,Raw,Open,,1
Mirko Klatt,1980,86.7,M,90,,130,,130,B,Raw,Open,,6
Jens Lehmann,1980,95.05,M,100,,135,,135,B,Raw,Open,,3
Ronny Dießner,1981,90.5,M,100,,122.5,,122.5,B,Raw,Open,,7
Marcel Sanftleben,1979,100.4,M,110,,150,,150,B,Raw,Open,,3
Heiko Götz,1978,126.7,M,140,,230,,230,B,Raw,Open,,1
Alexander Benik,1975,88.5,M,90,,170,,170,B,Raw,Open,,2
Matthias Hörning,1975,118.65,M,125,,180,,180,B,Raw,Open,,2
Steffen Reisbach,1967,88.8,M,90,,142.5,,142.5,B,Raw,Open,,4
Hagen Ribb,1970,111,M,125,,155,,155,B,Raw,Open,,3
Michael Barteld,1965,89.1,M,90,,100,,100,B,Raw,Open,,8
René Hohbom,1961,95.4,M,100,,152.5,,152.5,B,Raw,Open,,2
Thorsten Ritter,1964,100.9,M,110,,120,,120,B,Raw,Open,,6
Michael Harke,1963,112.3,M,125,,140,,140,B,Raw,Open,,5
Uwe Herfort,1960,72.7,M,75,,130,,130,B,Raw,Open,,1
Manfred Seitz,1958,79.7,M,82.5,,95,,95,B,Raw,Open,,3
Achim Flett,1958,103.7,M,110,,125,,125,B,Raw,Open,,5
Andreas Friedel,1959,110.1,M,125,,150,,150,B,Raw,Open,,4
Hans-Jürgen Kaule,1954,74.7,M,75,,125,,125,B,Raw,Open,,3
Gerd Müller,1952,82.4,M,82.5,,120,,120,B,Raw,Open,,2
Frank Kutzsch,1956,89.8,M,90,,141,,141,B,Raw,Open,,5
Thomas Wagner,1956,86.5,M,90,,112.5,,112.5,B,Raw,Open,,7
Kurt Schoula,1952,101.4,M,110,,150,,150,B,Raw,Open,,4
Albert Olomek,1946,91.4,M,100,,130,,130,B,Raw,Open,,4
Helmut Reimann,1951,102.7,M,110,,152.5,,152.5,B,Raw,Open,,2
Werner Jacobi,1934,78.8,M,82.5,,72.5,,72.5,B,Raw,Open,,4
Richard Gensch,1985,99.9,M,100,170,180,240,590,SBD,Multi-ply,Open,,2
Christopher Röper,1987,122.3,M,125,390,290,295,975,SBD,Multi-ply,Open,,1
Michael Jähnel,1992,121.1,M,125,305,310,272.5,887.5,SBD,Multi-ply,Open,,2
René Fiedler,1982,131.5,M,140,240,215,250,705,SBD,Multi-ply,Open,,1
Ronny Dießner,1981,90.5,M,100,200,160,242.5,602.5,SBD,Multi-ply,Open,,1
Erik Knöfler,1981,100.6,M,110,365,248,280,893,SBD,Multi-ply,Open,,1
Marcel Mette,1976,59.8,M,60,206,100,194,500,SBD,Multi-ply,Open,,1
Mieczysłąw Maczka,1954,81.5,M,82.5,142.5,105,142.5,390,SBD,Multi-ply,Open,,1
Nadine Schneider,1998,57.3,F,60,,,125,125,D,Raw,Open,,1
Jennifer Maluck,2000,87.5,F,90,,,125,125,D,Raw,Open,,1
Sylvia Schmidt,1983,49.75,F,52,,,107.5,107.5,D,Raw,Open,,1
Claudia Busse,1978,91.3,F,90+,,,100,100,D,Raw,Open,,1
Katrin Ribb,1970,78.1,F,82.5,,,165,165,D,Raw,Open,,1
Hennes Maske,2003,99.2,M,100,,,130,130,D,Raw,Open,,3
Max Tesmer,2002,79.85,M,82.5,,,180,180,D,Raw,Open,,1
Leon Jaggi,2003,111.2,M,125,,,155,155,D,Raw,Open,,4
Michael Ullrich,1987,74.15,M,75,,,170,170,D,Raw,Open,,2
Denny Lindner,1985,94,M,100,,,220,220,D,Raw,Open,,1
Jens Lehmann,1980,95.05,M,100,,,200,200,D,Raw,Open,,2
Marcel Sanftleben,1979,100.4,M,110,,,215,215,D,Raw,Open,,1
Matthias Hörnigg,1975,118.65,M,125,,,240,240,D,Raw,Open,,2
Michael Schmidt,1970,73.7,M,75,,,230,230,D,Raw,Open,,1
René Falk,1970,118,M,125,,,280,280,D,Raw,Open,,1
Hagen Ribb,1970,111,M,125,,,180,180,D,Raw,Open,,3
Gerd Müller,1952,82.4,M,82.5,,,167.5,167.5,D,Raw,Open,,2
Mieczysłąw Maczka,1954,81.5,M,82.5,,,120,120,D,Raw,Open,,3
Frank Kutzsch,1956,89.8,M,90,,,231,231,D,Raw,Open,,1
Burkhard Steffen,1950,70.85,M,75,,,140,140,D,Raw,Open,,3
Gerd Meyerhofer,1938,74.9,M,75,,,95,95,D,Raw,Open,,4
Richard Gensch,1985,99.9,M,100,,,220,220,D,Multi-ply,Open,,3
Michael Jähnel,1992,121.1,M,125,,,260,260,D,Multi-ply,Open,,1
René Fiedler,1982,131.5,M,140,,,245,245,D,Multi-ply,Open,,1
Ronny Dießner,1981,90.5,M,100,,,240,240,D,Multi-ply,Open,,1
Steffen Reisbach,1967,88.8,M,90,,,210,210,D,Multi-ply,Open,,1
Peter Kotschenreuther,1963,93.8,M,100,,,222.5,222.5,D,Multi-ply,Open,,2
Hans-Jürgen Kaule,1954,74.7,M,75,,,160,160,D,Multi-ply,Open,,1
Mieczysłąw Maczka,1954,81.2,M,82.5,,,145,145,D,Multi-ply,Open,,1
Lothar Schulze,1950,82.75,M,90,,,160,160,D,Multi-ply,Open,,2
Gerd Meyerhofer,1938,74.9,M,75,,,95,95,D,Multi-ply,Open,,2
