Place,Name,Sex,BirthDate,Age,Equipment,Division,BodyweightKg,WeightClassKg,Squat1Kg,Squat2Kg,Squat3Kg,Best3SquatKg,Bench1Kg,Bench2Kg,Bench3Kg,Best3BenchKg,Deadlift1Kg,Deadlift2Kg,Deadlift3Kg,Best3DeadliftKg,TotalKg,Event,Team
1,Jessica Banaszczyk,F,1998-03-29,24,Raw,F-OR,59.1,60,115,125,130,130,55,60,-65,60,140,150,152.5,152.5,342.5,SBD,Ignite Health Club
1,Paula Mitchell #1,F,1997-10-24,24,Wraps,F-OR,66,67.5,150,160,165,165,80,85,-90,85,145,155,160,160,410,SBD,Ignite
2,Amber Drew,F,1994-05-04,28,Raw,F-OR,65.7,67.5,137.5,145,-152.5,145,85,90,92.5,92.5,150,157.5,165,165,402.5,SBD,CrossFit Three Flow
3,Nina Ding,F,1989-09-08,32,Raw,F-OR,64.8,67.5,100,105,112.5,112.5,60,65,-70,65,135,145,155,155,332.5,SBD,Burley Strength
4,Wendy Hamilton,F,1957-12-18,64,Raw,F-OR,64.3,67.5,70,75,-80,75,47.5,50,-51,50,120,130,,130,255,SBD,Burley Strength
1,Lynne Gross,F,1975-09-03,,Wraps,F-OR,74,75,135,145,-150,145,95,100,-102.5,100,150,160,-172.5,160,405,SBD,Burley Strength
2,Derani Ayers,F,1973-01-02,49,Wraps,F-OR,70.9,75,115,122.5,130,130,85,90,-95,90,137.5,145,150,150,370,SBD,Ignite Albury NSW
3,Liana Prentice,F,1995-11-13,26,Raw,F-OR,71.3,75,115,125,130,130,45,50,52.5,52.5,145,152.5,157.5,157.5,340,SBD,Ignite Health club
4,Stephanie Howard #1,F,1992-08-08,29,Raw,F-OR,74.7,75,105,112.5,-120,112.5,60,65,-70,65,140,150,157.5,157.5,335,SBD,Burley strength
5,Nicole Thomason,F,1995-03-03,27,Wraps,F-OR,69,75,120,-135,135,135,50,57.5,60,60,110,125,-137.5,125,320,SBD,Club Lime (old elite physique)
1,Corinne Ness,F,1987-05-20,34,Raw,F-OR,88.4,90,100,-110,110,110,67.5,72.5,-77.5,72.5,135,142.5,-150,142.5,325,SBD,Burley Strength
1,Sophie Watts,F,1999-04-25,23,Wraps,F-OR,111.6,110+,125,135,150,150,65,70,72.5,72.5,125,140,145,145,367.5,SBD,Burley Strength
DQ,Kim Harris #1,F,1976-08-26,45,Wraps,F-OR,112.5,110+,-155,-160,-165,,50,60,-65,60,140,150,160,160,,SBD,narooma fitness centre
DQ,Amy Young,F,1989-07-26,32,Wraps,F-OR,121.2,110+,170,-187.5,187.5,187.5,-95,-102.5,-102.5,,155,162.5,175,175,,SBD,JW
1,Matt Pearce,M,1994-04-18,28,Wraps,M-OR,77,82.5,225,-235,,225,130,137.5,-140,137.5,260,270,-275,270,632.5,SBD,Burley Strength
2,Steve Stapley,M,1988-04-19,34,Wraps,M-OR,81.5,82.5,210,220,230,230,107.5,117.5,122.5,122.5,245,255,-265,255,607.5,SBD,Fitness first
3,Ryan Franolic,M,2001-07-18,20,Raw,M-OR,81.4,82.5,170,180,-187.5,180,92.5,102.5,-110,102.5,185,195,205,205,487.5,SBD,Ignite health club
1,Jack Sawyer,M,2000-07-18,21,Wraps,M-OR,89.3,90,220,232.5,-240,232.5,145,-152.5,152.5,152.5,265,-272.5,272.5,272.5,657.5,SBD,Ignite health club
2,Will Clarke #1,M,1996-05-17,25,Wraps,M-OR,88.8,90,190,-205,205,205,97.5,-102.5,102.5,102.5,210,222.5,-225,222.5,530,SBD,The Red Room
3,Connor Thornley,M,2000-07-14,21,Raw,M-OR,88.4,90,155,165,180,180,110,-120,-120,110,185,-200,-200,185,475,SBD,Ignite health club
1,Ricki Coleman-Rose,M,1989-01-25,33,Raw,M-OR,96,100,150,162.5,170,170,95,105,-115,105,190,202.5,212.5,212.5,487.5,SBD,Burley Strength
1,Dean Pascoe,M,1978-06-04,,Wraps,M-OR,108,110,255,275,282.5,282.5,157.5,165,-167.5,165,260,275,-282.5,275,722.5,SBD,The Red Room
2,Jeremy Ronnfeldt,M,1985-12-02,,Raw,M-OR,105.6,110,240,250,260,260,150,-165,-170,150,260,270,280,280,690,SBD,Ignite
3,Thomas Musgrove,M,1988-12-23,33,Wraps,M-OR,107.4,110,220,-232.5,232.5,232.5,145,152.5,-160,152.5,255,265,277.5,277.5,662.5,SBD,Burley Strength
1,Sean Duffy,M,1986-01-26,36,Raw,M-OR,123.6,125,260,-285,,260,170,185,195,195,280,-305,305,305,760,SBD,Clublime
1,Thomas Porter,M,1988-11-24,33,Raw,M-OR,134,140,-170,170,187.5,187.5,180,-190,-190,180,250,260,270,270,637.5,SBD,Burley Strength
1,Dale Haskew,M,1998-05-02,24,Wraps,M-OR,154.2,140+,260,285,305,305,160,180,-195,180,270,295,307.5,307.5,792.5,SBD,Club lime
