﻿Place,Name,Sex,BirthDate,Equipment,Division,BodyweightKg,WeightClassKg,Squat1Kg,Squat2Kg,Squat3Kg,Best3SquatKg,Bench1Kg,Bench2Kg,Bench3Kg,Best3BenchKg,Deadlift1Kg,Deadlift2Kg,Deadlift3Kg,Best3DeadliftKg,TotalKg,Event,Team
NS,Katie Meehan,F,,Raw,F-O,,,,,,,,,,,,,,,,SBD,Urban Barbell
NS,Shauna Murphy,F,,Raw,F-O,,,,,,,,,,,,,,,,SBD,
1,Fina Doyle,F,,Raw,F-O,50.4,52,75,82.5,87.5,87.5,50,52.5,55,55,-132.5,132.5,-140,132.5,275,SBD,Phenom Gym
1,Magdalena Kwiatek,F,,Raw,F-O,55.6,57,-110,110,120,120,65,72.5,-75,72.5,105,115,125,125,317.5,SBD,Mind Over Matter Gym
2,Hollie Doherty,F,,Raw,F-O,57,57,100,105,-107.5,105,50,52.5,-55,52.5,115,122.5,-127.5,122.5,280,SBD,
1,Juliet Sweeney,F,,Raw,F-O,60.8,63,132.5,140,145,145,70,77.5,82.5,82.5,150,160,162.5,162.5,390,SBD,
2,Aoife Chearbhaill,F,,Raw,F-O,62,63,130,137.5,140,140,75,80,82.5,82.5,150,157.5,162.5,162.5,385,SBD,Odyssey Strength
3,Katarzyna Rutkowska,F,1977-08-16,Raw,F-O,58.2,63,70,-77.5,80,80,-47.5,50,-52.5,50,100,112.5,120,120,250,SBD,A.B.S. Powerlifting
4,Nikol Habrova,F,,Raw,F-O,62.4,63,70,80,87.5,87.5,50,57.5,60,60,90,100,-112.5,100,247.5,SBD,
5,Nova Satyadi,F,,Raw,F-O,60.8,63,65,70,-75,70,35,37.5,-40,37.5,75,82.5,-90,82.5,190,SBD,Phenom Gym
G,Bernadette Fogarty,F,,Raw,F-O,59.4,63,-82.5,82.5,-95,82.5,40,47.5,52.5,52.5,-102.5,105,-120,105,240,SBD,EQ Strength & Conditioning
1,Jessica Lee,F,,Raw,F-O,68.6,69,140,-150,150,150,65,70,72.5,72.5,160,165,-172.5,165,387.5,SBD,
2,Rachel Ireson,F,,Raw,F-O,69,69,100,105,110,110,57.5,62.5,-65,62.5,145,147.5,150,150,322.5,SBD,Conor Byrne Fitness
3,Breda Maher,F,,Raw,F-O,65.4,69,80,90,100,100,40,45,50,50,110,120,130,130,280,SBD,EQ Strength & Conditioning
1,Jackie Quinn,F,,Raw,F-O,70.4,76,-110,110,117.5,117.5,50,55,60,60,125,132.5,140,140,317.5,SBD,KAOS
2,Katie Mann,F,,Raw,F-O,75.6,76,85,95,105,105,47.5,50,-52.5,50,100,110,120,120,275,SBD,Odyssey Strength
1,Nicole Craig #1,F,,Raw,F-O,83.6,84,110,115,117.5,117.5,60,65,70,70,160,167.5,170,170,357.5,SBD,Phenom Gym
2,Niina Järvenkari,F,,Raw,F-O,78,84,-92.5,92.5,-102.5,92.5,57.5,62.5,-65,62.5,102.5,112.5,-117.5,112.5,267.5,SBD,A.B.S. Powerlifting
3,Kate Dineen,F,,Raw,F-O,82.4,84,80,85,90,90,42.5,47.5,50,50,90,97.5,105,105,245,SBD,SB Fitness
1,Clare Patterson,F,,Raw,F-O,97.8,84+,155,160,165,165,122.5,127.5,130,130,160,170,175,175,470,SBD,Iron Warrior Strength
2,Tracey Kelly,F,,Raw,F-O,128.5,84+,125,135,145,145,80,85,-87.5,85,162.5,170,177.5,177.5,407.5,SBD,Urban Barbell
3,Regina Myler,F,,Raw,F-O,94.4,84+,135,140,150,150,65,70,75,75,160,-170,170,170,395,SBD,Conor Byrne Fitness
4,Kristine Kazimira,F,,Raw,F-O,107,84+,147.5,155,-160,155,72.5,75,-77.5,75,-137.5,-137.5,137.5,137.5,367.5,SBD,Conor Byrne Fitness
5,Sarah May Hamilton,F,,Raw,F-O,94.6,84+,72.5,77.5,80,80,52.5,57.5,60,60,100,110,120,120,260,SBD,Phenom Gym
NS,Thomas Pigott,M,,Raw,M-O,,,,,,,,,,,,,,,,SBD,RTB
G,Josh Lloyd,M,,Raw,M-O,64.8,66,100,110,122.5,122.5,60,-65,-70,60,135,145,152.5,152.5,335,SBD,
1,Alex Smale,M,,Raw,M-O,73.8,74,170,-177.5,-177.5,170,-117.5,117.5,125,125,227.5,237.5,247.5,247.5,542.5,SBD,Phenom Gym
2,Niall Concannon,M,,Raw,M-O,72,74,165,175,-182.5,175,120,-127.5,-127.5,120,-185,195,205,205,500,SBD,Transform Gym
3,Matthew O'Sullivan,M,,Raw,M-O,72.4,74,155,-170,-170,155,85,90,95,95,170,182.5,-195,182.5,432.5,SBD,A.B.S. Powerlifting
1,Keith Fanning,M,,Raw,M-O,79,83,225,235,-245,235,145,152.5,-155,152.5,250,-260,-260,250,637.5,SBD,CityGym Limerick
2,Mark Austin,M,,Raw,M-O,81.6,83,180,190,200,200,95,105,-112.5,105,190,200,207.5,207.5,512.5,SBD,
3,Darragh Masterson,M,,Raw,M-O,82.2,83,-175,175,-182.5,175,105,110,115,115,170,180,185,185,475,SBD,Phenom Gym
4,Shane Hannan,M,,Raw,M-O,79.4,83,145,152.5,160,160,87.5,92.5,100,100,182.5,192.5,-200,192.5,452.5,SBD,CityGym Limerick
5,Mark Tobin,M,,Raw,M-O,81.4,83,120,-160,160,160,90,110,120,120,120,160,-190,160,440,SBD,
1,Adam Joy,M,,Raw,M-O,90.8,93,220,227.5,232.5,232.5,140,147.5,150,150,230,245,255,255,637.5,SBD,KAOS
2,Steven McGuire,M,,Raw,M-O,91.8,93,215,222.5,227.5,227.5,140,145,147.5,147.5,250,257.5,-262.5,257.5,632.5,SBD,Sayers Strength
3,Ben Doherty,M,,Raw,M-O,90.8,93,190,200,210,210,125,130,132.5,132.5,210,220,235,235,577.5,SBD,
4,Patrick O'Callaghan,M,,Raw,M-O,91.2,93,185,195,200,200,110,120,-125,120,210,222.5,-230,222.5,542.5,SBD,
5,Sean Amisano,M,,Raw,M-O,91.2,93,170,177.5,182.5,182.5,117.5,125,-130,125,200,215,225,225,532.5,SBD,Phenom Gym
6,Paul AG Corcoran,M,,Raw,M-O,90.6,93,180,-190,200,200,122.5,-132.5,-135,122.5,175,195,205,205,527.5,SBD,A.B.S. Powerlifting
7,Stephen McCollum,M,,Raw,M-O,90.6,93,170,177.5,182.5,182.5,100,105,107.5,107.5,220,230,235,235,525,SBD,Odyssey Strength
1,Scott Dean,M,,Raw,M-O,104.8,105,245,265,285,285,160,175,180,180,275,305,-325,305,770,SBD,KAOS
2,Jack Browne,M,,Raw,M-O,101.8,105,230,245,250,250,150,160,165,165,280,300,307.5,307.5,722.5,SBD,
1,Simon Leen,M,,Raw,M-O,117.6,120,255,265,270,270,175,185,-195,185,260,275,-280,275,730,SBD,
2,Stephen Duffy #1,M,,Raw,M-O,117.4,120,205,215,225,225,107.5,115,120,120,210,220,-227.5,220,565,SBD,Odyssey Strength
1,John Slattery,M,,Raw,M-O,144,120+,255,270,280,280,195,205,210,210,225,245,-255,245,735,SBD,A.B.S. Powerlifting
2,Gordon Bedlow,M,,Raw,M-O,135.5,120+,245,260,267.5,267.5,145,150,155,155,270,285,292.5,292.5,715,SBD,Phenom Gym
3,Jonathan Gorman,M,,Raw,M-O,140.5,120+,220,230,245,245,160,170,180,180,250,260,-275,260,685,SBD,Reform
4,Matthew Coppinger,M,,Raw,M-O,124.5,120+,190,205,-212.5,205,140,150,157.5,157.5,210,225,-232.5,225,587.5,SBD,KAOS
5,John Marley,M,,Raw,M-O,141.5,120+,-145,145,152.5,152.5,95,102.5,107.5,107.5,175,185,190,190,450,SBD,Odyssey Strength
DQ,Eamonn Barry,M,,Raw,M-O,175.5,120+,-182.5,-182.5,-182.5,,92.5,-97.5,-100,92.5,182.5,-195,-195,182.5,,SBD,Phenom Gym
